{
    "results": [
        {
            "vote_count": 859,
            "id": 420818,
            "video": false,
            "vote_average": 7.2,
            "title": "The Lion King",
            "popularity": 489.413,
            "poster_path": "/dzBtMocZuJbjLOXvrl4zGYigDzh.jpg",
            "original_language": "en",
            "original_title": "The Lion King",
            "genre_ids": [
                12,
                16,
                10751,
                18,
                28
            ],
            "backdrop_path": "/1TUg5pO1VZ4B0Q1amk3OlXvlpXV.jpg",
            "adult": false,
            "overview": "Simba idolises his father, King Mufasa, and takes to heart his own royal destiny. But not everyone in the kingdom celebrates the new cub's arrival. Scar, Mufasa's brother—and former heir to the throne—has plans of his own. The battle for Pride Rock is ravaged with betrayal, tragedy and drama, ultimately resulting in Simba's exile. With help from a curious pair of newfound friends, Simba will have to figure out how to grow up and take back what is rightfully his.",
            "release_date": "2019-07-12"
        },
        {
            "vote_count": 24,
            "id": 566555,
            "video": false,
            "vote_average": 5.2,
            "title": "Detective Conan: The Fist of Blue Sapphire",
            "popularity": 309.037,
            "poster_path": "/86Y6qM8zTn3PFVfCm9J98Ph7JEB.jpg",
            "original_language": "ja",
            "original_title": "名探偵コナン 紺青の拳（フィスト）",
            "genre_ids": [
                16,
                28,
                18,
                9648,
                35
            ],
            "backdrop_path": "/wf6VDSi4aFCZfuD8sX8JAKLfJ5m.jpg",
            "adult": false,
            "overview": "23rd movie in the \"Detective Conan\" franchise.",
            "release_date": "2019-04-12"
        },
        {
            "vote_count": 2414,
            "id": 429617,
            "video": false,
            "vote_average": 7.8,
            "title": "Spider-Man: Far from Home",
            "popularity": 253.351,
            "poster_path": "/rjbNpRMoVvqHmhmksbokcyCr7wn.jpg",
            "original_language": "en",
            "original_title": "Spider-Man: Far from Home",
            "genre_ids": [
                28,
                12,
                878
            ],
            "backdrop_path": "/dihW2yTsvQlust7mSuAqJDtqW7k.jpg",
            "adult": false,
            "overview": "Peter Parker and his friends go on a summer trip to Europe. However, they will hardly be able to rest - Peter will have to agree to help Nick Fury uncover the mystery of creatures that cause natural disasters and destruction throughout the continent.",
            "release_date": "2019-06-28"
        },
        {
            "vote_count": 1764,
            "id": 447404,
            "video": false,
            "vote_average": 7,
            "title": "Pokémon Detective Pikachu",
            "popularity": 145.339,
            "poster_path": "/wgQ7APnFpf1TuviKHXeEe3KnsTV.jpg",
            "original_language": "en",
            "original_title": "Pokémon Detective Pikachu",
            "genre_ids": [
                28,
                12,
                14
            ],
            "backdrop_path": "/nDP33LmQwNsnPv29GQazz59HjJI.jpg",
            "adult": false,
            "overview": "In a world where people collect pocket-size monsters (Pokémon) to do battle, a boy comes across an intelligent monster who seeks to be a detective.",
            "release_date": "2019-05-03"
        },
        {
            "vote_count": 1575,
            "id": 301528,
            "video": false,
            "vote_average": 7.7,
            "title": "Toy Story 4",
            "popularity": 123.801,
            "poster_path": "/w9kR8qbmQ01HwnvK4alvnQ2ca0L.jpg",
            "original_language": "en",
            "original_title": "Toy Story 4",
            "genre_ids": [
                12,
                16,
                35,
                10751
            ],
            "backdrop_path": "/m67smI1IIMmYzCl9axvKNULVKLr.jpg",
            "adult": false,
            "overview": "Woody has always been confident about his place in the world and that his priority is taking care of his kid, whether that's Andy or Bonnie. But when Bonnie adds a reluctant new toy called \"Forky\" to her room, a road trip adventure alongside old and new friends will show Woody how big the world can be for a toy.",
            "release_date": "2019-06-19"
        },
        {
            "vote_count": 3,
            "id": 486589,
            "video": false,
            "vote_average": 8,
            "title": "Red Shoes and the Seven Dwarfs",
            "popularity": 114.832,
            "poster_path": "/xQccIXfq9J4tgbvdSSPPLLYZGRD.jpg",
            "original_language": "en",
            "original_title": "Red Shoes and the Seven Dwarfs",
            "genre_ids": [
                16,
                10749
            ],
            "backdrop_path": "/4uhVMTAgGt36h68SCTOQKCB4z50.jpg",
            "adult": false,
            "overview": "Princes who have been turned into Dwarfs seek the red shoes of a lady in order to break the spell, although it will not be easy.",
            "release_date": "2019-07-25"
        },
        {
            "vote_count": 560,
            "id": 479455,
            "video": false,
            "vote_average": 5.9,
            "title": "Men in Black: International",
            "popularity": 107.814,
            "poster_path": "/dPrUPFcgLfNbmDL8V69vcrTyEfb.jpg",
            "original_language": "en",
            "original_title": "Men in Black: International",
            "genre_ids": [
                28,
                35,
                878,
                12
            ],
            "backdrop_path": "/2FYzxgLNuNVwncilzUeCGbOQzP7.jpg",
            "adult": false,
            "overview": "The Men in Black have always protected the Earth from the scum of the universe. In this new adventure, they tackle their biggest, most global threat to date: a mole in the Men in Black organization.",
            "release_date": "2019-06-12"
        },
        {
            "vote_count": 7954,
            "id": 299534,
            "video": false,
            "vote_average": 8.4,
            "title": "Avengers: Endgame",
            "popularity": 104.152,
            "poster_path": "/or06FN3Dka5tukK1e9sl16pB3iy.jpg",
            "original_language": "en",
            "original_title": "Avengers: Endgame",
            "genre_ids": [
                12,
                878,
                28
            ],
            "backdrop_path": "/7RyHsO4yDXtBv1zUU3mTpHeQ0d5.jpg",
            "adult": false,
            "overview": "After the devastating events of Avengers: Infinity War, the universe is in ruins due to the efforts of the Mad Titan, Thanos. With the help of remaining allies, the Avengers must assemble once more in order to undo Thanos' actions and restore order to the universe once and for all, no matter what consequences may be in store.",
            "release_date": "2019-04-24"
        },
        {
            "vote_count": 232,
            "id": 459992,
            "video": false,
            "vote_average": 6.9,
            "title": "Long Shot",
            "popularity": 88.133,
            "poster_path": "/m2ttWZ8rMRwIMT7zA48Jo6mTkDS.jpg",
            "original_language": "en",
            "original_title": "Long Shot",
            "genre_ids": [
                35,
                10749
            ],
            "backdrop_path": "/88r25ghJzVYKq0vaOApqEOZsQlD.jpg",
            "adult": false,
            "overview": "When Fred Flarsky reunites with and charms his first crush, Charlotte Field—one of the most influential women in the world. As Charlotte prepares to make a run for the Presidency, she hires Fred as her speechwriter and sparks fly.",
            "release_date": "2019-05-02"
        },
        {
            "vote_count": 42,
            "id": 466272,
            "video": false,
            "vote_average": 8,
            "title": "Once Upon a Time in Hollywood",
            "popularity": 84.916,
            "poster_path": "/8j58iEBw9pOXFD2L0nt0ZXeHviB.jpg",
            "original_language": "en",
            "original_title": "Once Upon a Time in Hollywood",
            "genre_ids": [
                18,
                35,
                28,
                80,
                37
            ],
            "backdrop_path": "/b82nVVhYNRgtsTFV1jkdDwe6LJZ.jpg",
            "adult": false,
            "overview": "A faded television actor and his stunt double strive to achieve fame and success in the film industry during the final years of Hollywood's Golden Age in 1969 Los Angeles.",
            "release_date": "2019-07-25"
        },
        {
            "vote_count": 1652,
            "id": 458156,
            "video": false,
            "vote_average": 7.1,
            "title": "John Wick: Chapter 3 – Parabellum",
            "popularity": 84.741,
            "poster_path": "/ziEuG1essDuWuC5lpWUaw1uXY2O.jpg",
            "original_language": "en",
            "original_title": "John Wick: Chapter 3 – Parabellum",
            "genre_ids": [
                80,
                28,
                53
            ],
            "backdrop_path": "/vVpEOvdxVBP2aV166j5Xlvb5Cdc.jpg",
            "adult": false,
            "overview": "Super-assassin John Wick returns with a $14 million price tag on his head and an army of bounty-hunting killers on his trail. After killing a member of the shadowy international assassin’s guild, the High Table, John Wick is excommunicado, but the world’s most ruthless hit men and women await his every turn.",
            "release_date": "2019-05-15"
        },
        {
            "vote_count": 107,
            "id": 511987,
            "video": false,
            "vote_average": 5.9,
            "title": "Crawl",
            "popularity": 71.045,
            "poster_path": "/mKxpYRIrCZLxZjNqpocJ2RdQW8v.jpg",
            "original_language": "en",
            "original_title": "Crawl",
            "genre_ids": [
                53,
                28,
                27
            ],
            "backdrop_path": "/2cAce3oD0Hh7f5XxuXmNXa1WiuZ.jpg",
            "adult": false,
            "overview": "While struggling to save her father during a Category 5 hurricane, a young woman finds herself trapped inside a flooding house and fighting for her life against Florida’s most savage and feared predators.",
            "release_date": "2019-07-11"
        },
        {
            "vote_count": 1593,
            "id": 537915,
            "video": false,
            "vote_average": 5.9,
            "title": "After",
            "popularity": 62.852,
            "poster_path": "/u3B2YKUjWABcxXZ6Nm9h10hLUbh.jpg",
            "original_language": "en",
            "original_title": "After",
            "genre_ids": [
                18,
                10749
            ],
            "backdrop_path": "/997ToEZvF2Obp9zNZbY5ELVnmrW.jpg",
            "adult": false,
            "overview": "Tessa Young is a dedicated student, dutiful daughter and loyal girlfriend to her high school sweetheart. Entering her first semester of college, Tessa's guarded world opens up when she meets Hardin Scott, a mysterious and brooding rebel who makes her question all she thought she knew about herself -- and what she wants out of life.",
            "release_date": "2019-04-11"
        },
        {
            "vote_count": 1238,
            "id": 320288,
            "video": false,
            "vote_average": 6.2,
            "title": "Dark Phoenix",
            "popularity": 50.378,
            "poster_path": "/kZv92eTc0Gg3mKxqjjDAM73z9cy.jpg",
            "original_language": "en",
            "original_title": "Dark Phoenix",
            "genre_ids": [
                878,
                28
            ],
            "backdrop_path": "/phxiKFDvPeQj4AbkvJLmuZEieDU.jpg",
            "adult": false,
            "overview": "The X-Men face their most formidable and powerful foe when one of their own, Jean Grey, starts to spiral out of control. During a rescue mission in outer space, Jean is nearly killed when she's hit by a mysterious cosmic force. Once she returns home, this force not only makes her infinitely more powerful, but far more unstable. The X-Men must now band together to save her soul and battle aliens that want to use Grey's new abilities to rule the galaxy.",
            "release_date": "2019-06-05"
        },
        {
            "vote_count": 50,
            "id": 458302,
            "video": false,
            "vote_average": 7.6,
            "title": "Remi, Nobody's Boy",
            "popularity": 49.82,
            "poster_path": "/mQYXlxlUTmOP4FWt52qkZZb8JNM.jpg",
            "original_language": "fr",
            "original_title": "Rémi sans famille",
            "genre_ids": [
                18,
                35
            ],
            "backdrop_path": "/4aFtD31RpP018y8XipTLrU8Y3pa.jpg",
            "adult": false,
            "overview": "The adventures of the young Rémi, an orphan, collected by the gentle Madam Barberin. At the age of 10 years, he is snatched from his adoptive mother and entrusted to the signor Vitalis, a mysterious itinerant musician. Has its sides, he will learn the harsh life of acrobat and sing to win his bread. Accompanied by the faithful dog capi and of the small monkey Joli-Coeur, his long trip through France, made for meetings, friendships and mutual assistance, leads him to the secret of its origins.",
            "release_date": "2018-12-12"
        },
        {
            "vote_count": 422,
            "id": 521029,
            "video": false,
            "vote_average": 6,
            "title": "Annabelle Comes Home",
            "popularity": 45.478,
            "poster_path": "/qWsHMrbg9DsBY3bCMk9jyYCRVRs.jpg",
            "original_language": "en",
            "original_title": "Annabelle Comes Home",
            "genre_ids": [
                27
            ],
            "backdrop_path": "/dBt0DoFfbhOI4ypUfRj1uTq623M.jpg",
            "adult": false,
            "overview": "Determined to keep Annabelle from wreaking more havoc, demonologists Ed and Lorraine Warren bring the possessed doll to the locked artifacts room in their home, placing her “safely” behind sacred glass and enlisting a priest’s holy blessing. But an unholy night of horror awaits as Annabelle awakens the evil spirits in the room, who all set their sights on a new target—the Warrens' ten-year-old daughter, Judy, and her friends.",
            "release_date": "2019-06-26"
        },
        {
            "vote_count": 784,
            "id": 373571,
            "video": false,
            "vote_average": 6.3,
            "title": "Godzilla: King of the Monsters",
            "popularity": 42.346,
            "poster_path": "/pU3bnutJU91u3b4IeRPQTOP8jhV.jpg",
            "original_language": "en",
            "original_title": "Godzilla: King of the Monsters",
            "genre_ids": [
                878,
                28
            ],
            "backdrop_path": "/uovH5k4BAEPqXqxgwVrTtqH169g.jpg",
            "adult": false,
            "overview": "The new story follows the heroic efforts of the crypto-zoological agency Monarch as its members face off against a battery of god-sized monsters, including the mighty Godzilla, who collides with Mothra, Rodan, and his ultimate nemesis, the three-headed King Ghidorah. When these ancient super-species—thought to be mere myths—rise again, they all vie for supremacy, leaving humanity’s very existence hanging in the balance.",
            "release_date": "2019-05-29"
        },
        {
            "vote_count": 103,
            "id": 514439,
            "video": false,
            "vote_average": 6.9,
            "title": "Breakthrough",
            "popularity": 38.464,
            "poster_path": "/t58dx7JIgchr9If5uxn3NmHaHoS.jpg",
            "original_language": "en",
            "original_title": "Breakthrough",
            "genre_ids": [
                18
            ],
            "backdrop_path": "/2kR79WCmVIzFYQWH9X3LqcehvC2.jpg",
            "adult": false,
            "overview": "When he was 14, Smith drowned in Lake St. Louis and was dead for nearly an hour. According to reports at the time, CPR was performed 27 minutes to no avail. Then the youth's mother, Joyce Smith, entered the room, praying loudly. Suddenly, there was a pulse, and Smith came around.",
            "release_date": "2019-04-11"
        },
        {
            "vote_count": 109,
            "id": 468224,
            "video": false,
            "vote_average": 6.6,
            "title": "Tolkien",
            "popularity": 36.873,
            "poster_path": "/A7eYO3t7oZQdfJj5KlJBI7GhT9H.jpg",
            "original_language": "en",
            "original_title": "Tolkien",
            "genre_ids": [
                18,
                36,
                10752
            ],
            "backdrop_path": "/uzJbHWze4FcouxyWFsiTRs00IES.jpg",
            "adult": false,
            "overview": "Explore the formative years of the orphaned author as he finds friendship, love and artistic inspiration among a group of fellow outcasts at school. This takes him into the outbreak of World War I, which threatens to tear the “fellowship” apart. All of these experiences would inspire Tolkien to write his famous Middle-Earth novels.",
            "release_date": "2019-05-03"
        },
        {
            "vote_count": 53,
            "id": 524247,
            "video": false,
            "vote_average": 6.5,
            "title": "The Intruder",
            "popularity": 36.626,
            "poster_path": "/p9xKyetr0ihJ2K6HJMeXzc4IwEv.jpg",
            "original_language": "en",
            "original_title": "The Intruder",
            "genre_ids": [
                53,
                18
            ],
            "backdrop_path": "/kyegg1r5oxRCZgqU7anHYD2TJap.jpg",
            "adult": false,
            "overview": "A psychological thriller about a young married couple who buys a beautiful Napa Valley house on several acres of land only to find that the man they bought it from refuses to let go of the property.",
            "release_date": "2019-05-03"
        }
    ],
    "page": 1,
    "total_results": 929,
    "dates": {
        "maximum": "2019-07-31",
        "minimum": "2019-06-13"
    },
    "total_pages": 47
}
